Ruble LRM
…
Developing LRM based on time off recovery and total loss over that period

predictor 1 (TO DO): time to ‘recover’ from initial drop, here I just looked at how long it took the ruble to have consecutive week of positive adjusted rate of change. This is very arbitrary and need to be worked on. I tried to do some research into when a currency is considered to have stabilized after a drop but could not find anything useful. Biggest thing this model need to work on is determining when the ruble steadies out after the initial fall off.

predictor 2 : over the time to stabilize how much the currency lost in it’s opening value

Target : number of days the currency will take to reach predicted values of pre_sanctions LRM

#grouping post_sanction data by week and printing out to manually see 2 weeks of positive
post_sanc|>
  mutate(index = 1:nrow(post_sanc) %/% 7)|>
  group_by(index)|>
  summarise(Average_ROTADJ = mean(rate_of_change_adj, na.rm = TRUE))

# A tibble: 347 × 2
   index Average_ROTADJ
   <dbl>          <dbl>
 1     0      -0.00469 
 2     1      -0.00372 
 3     2      -0.00218 
 4     3      -0.00334 
 5     4      -0.00528 
 6     5      -0.0148  
 7     6      -0.000422
 8     7       0.00402 
 9     8      -0.0211  
10     9      -0.0461  
# ℹ 337 more rows
…
